1560806635.8104346,302,3,287
1560806695.839205,245,51,52
1560806755.9875667,291,42,98
1560806815.9410646,356,48,169
1560806875.9748764,302,60,133
1560806936.160229,279,48,144
1560807001.2274647,334,48,152
1560807061.547453,282,45,188
1560807121.8948026,284,51,80
1560807181.9552605,293,48,125
1560807242.1432884,308,48,123
1560807302.4302363,301,48,135
1560807367.5504146,334,48,141
1560807427.8745487,302,48,79
1560807488.4082727,310,51,111
1560807548.6770198,324,57,154
1560807608.9905891,299,48,109
1560807669.0450153,270,48,184
1560807729.2900581,317,36,167
1560807794.694686,311,60,88
1560807854.793265,309,48,192
1560807915.114238,298,48,153
1560807975.1418045,278,48,66
1560808035.689661,314,48,96
1560808095.7736967,340,48,223
1560808161.2960932,314,48,178
1560808221.485318,248,48,136
1560808281.605901,280,48,98
1560808341.6989093,309,48,170
1560808401.7453198,315,48,99
1560808461.9606886,300,42,201
1560808522.045125,296,42,138
1560808587.3925729,304,60,106
1560808647.7500086,312,48,106
1560808707.9014158,315,48,158
1560808768.0411263,304,48,149
1560808828.3855658,280,48,113
1560808888.7489393,290,54,118
1560808948.8289723,305,54,135
1560809013.966866,323,60,86
1560809074.309508,317,36,174
1560809134.644545,309,51,226
1560809194.8638246,261,57,146
1560809255.069249,263,48,82
1560809320.1794727,338,48,167
1560809380.493543,319,60,150
1560809440.765112,277,48,60
1560809500.8403249,300,54,131
1560809560.8748868,336,54,132
1560809621.1709237,296,24,90
1560809681.2964904,321,0,310
1560809741.3500752,306,0,314
1560809806.3926802,267,0,251
1560809866.5792027,271,0,281
1560809927.0477521,266,0,266
1560809987.433238,267,0,272
1560810047.7468543,269,0,273
1560810107.857678,253,0,257
1560810167.9438896,268,0,273
1560810228.085535,265,0,268
1560810293.2289834,282,0,266
1560810353.513345,271,0,271
