1561923977.9286814,192,170,0,200
1561924068.0674398,164,142,0,161
1561924158.1444786,151,137,0,153
1561924253.2691891,173,152,0,164
1561924348.402479,159,144,0,156
1561924428.560813,138,130,0,154
1561924523.7351112,166,152,0,164
1561924618.8938503,175,158,0,159
1561924698.9733377,159,133,0,181
1561924794.00143,182,158,0,171
1561924889.1058023,172,152,0,163
1561924979.2202628,170,150,0,176
1561925064.377457,158,137,0,160
1561925164.5615668,182,162,0,173
1561925249.7180543,155,138,0,159
1561925334.7940643,149,134,0,163
1561925434.9407153,188,170,0,168
1561925520.055203,150,138,0,163
1561925620.242764,185,160,0,162
1561925710.2522385,162,147,0,167
1561925795.3496459,146,138,0,158
1561925885.5351212,162,147,0,167
