1561063182.520552,23,0,13
1561063242.7228694,239,42,148
1561063307.9699113,290,54,114
1561063368.0486999,297,60,152
1561063428.365802,269,48,170
1561063488.4344566,270,54,121
1561063548.6781814,290,54,132
1561063613.7904103,324,57,138
1561063673.873756,282,51,158
1561063733.9364579,271,54,158
1561063793.9293084,288,54,121
1561063853.999375,275,54,132
1561063919.1571782,320,60,140
1561063979.3903346,287,54,118
1561064039.5301113,272,60,115
1561064099.9109383,297,54,199
1561064159.9157078,296,48,126
1561064219.9548242,280,54,149
1561064284.9981918,301,60,155
1561064345.3302922,267,48,122
1561064405.3704731,286,54,104
1561064465.4196525,308,57,117
1561064525.518927,296,57,159
1561064590.597154,319,12,216
1561064650.8478603,268,0,264
