1561929610.1044664,214,202,0,216
1561929700.2866964,232,213,0,232
1561929790.4957266,241,231,0,244
1561929885.425453,253,228,0,241
1561929975.4375777,240,225,0,248
1561930065.5056045,245,215,0,243
1561930155.7171028,247,228,0,246
1561930245.9957383,247,219,0,242
1561930341.316907,273,236,0,270
1561930431.423989,232,212,0,226
1561930521.6707873,231,219,0,239
1561930611.986288,242,222,0,248
1561930702.0219965,246,229,0,246
1561930792.2627585,245,226,0,246
1561930882.3878684,241,222,0,244
1561930977.5303087,231,214,0,222
1561931067.7211723,146,126,0,153
1561931157.7297423,163,144,0,161
1561931247.7498758,166,149,0,165
1561931342.800836,169,151,0,163
1561931433.13872,158,146,0,161
1561931523.218188,149,132,0,148
1561931613.2919211,143,135,0,144
1561931703.3871903,190,139,0,192
1561931793.58331,154,139,0,154
1561931883.818413,178,143,0,179
1561931978.9517312,171,144,0,157
1561932069.0824368,161,135,0,168
1561932159.4132276,198,124,0,178
1561932249.5772314,172,136,0,171
1561932435.1696396,96,90,0,66
1561932520.4948554,217,201,0,232
1561932615.746175,249,235,0,238
1561932705.9472094,242,214,0,243
1561932796.1700149,245,231,0,250
1561932891.4677694,256,230,0,239
1561932976.6402698,228,213,0,252
1561933071.7868621,183,142,0,168
1561933161.9380844,149,125,0,140
1561933252.0098572,144,128,0,135
1561933342.1526332,221,179,0,194
1561933432.4268408,262,247,0,290
1561933527.7928023,261,238,0,251
1561933618.097708,264,220,0,271
1561933708.3262522,232,209,0,230
1561933798.44164,252,232,0,257
1561933888.6640527,241,221,0,246
1561933978.8795228,246,226,0,246
1561934073.9998324,257,240,0,243
1561934164.0710497,246,226,0,248
1561934254.2663536,251,230,0,250
1561934344.439226,229,209,0,237
1561934434.4322903,241,226,0,239
1561934529.553172,272,256,0,256
1561934619.781925,235,215,0,241
1561934714.917607,241,224,0,225
1561934800.0429754,235,213,0,260
1561934890.2294493,237,225,0,233
